<svg xmlns="http://www.w3.org/2000/svg" width="17" height="17" viewBox="0 0 17 17">
  <g id="audit_active" transform="translate(-5415 -1780)">
    <rect id="Rectangle_819" data-name="Rectangle 819" width="17" height="17" transform="translate(5415 1780)" fill="none"/>
    <g id="Group_3002" data-name="Group 3002" transform="translate(5417.679 1781)">
      <path id="Path_11437" data-name="Path 11437" d="M203.644,59.736a.552.552,0,0,0,.552-.552v-5.6a2.209,2.209,0,0,0-2.207-2.207h-1.738v-.827A.552.552,0,0,0,199.7,50h-2.207a.552.552,0,0,0-.552.552v.827h-1.735A2.209,2.209,0,0,0,193,53.586v8.33a2.209,2.209,0,0,0,2.207,2.207h6.782a2.209,2.209,0,0,0,2.207-2.207.552.552,0,1,0-1.1,0,1.1,1.1,0,0,1-1.1,1.1h-6.782a1.1,1.1,0,0,1-1.1-1.1v-8.33a1.1,1.1,0,0,1,1.1-1.1h1.735v.276a1.655,1.655,0,1,0,3.31,0v-.276h1.738a1.1,1.1,0,0,1,1.1,1.1v5.6a.552.552,0,0,0,.552.552Zm-4.5-6.978a.552.552,0,1,1-1.1,0V51.1h1.1Zm2.411,3.52a.552.552,0,0,1,.139.768l-2.454,3.536-.023.031a1.422,1.422,0,0,1-1.011.527c-.031,0-.063,0-.094,0a1.422,1.422,0,0,1-.979-.391l-.008-.007L195.671,59.3a.552.552,0,0,1,.776-.784l1.453,1.437a.315.315,0,0,0,.45-.022l2.441-3.516a.552.552,0,0,1,.768-.139Zm0,0" transform="translate(-193 -50)" fill="#164883"/>
    </g>
  </g>
</svg>
