<svg xmlns="http://www.w3.org/2000/svg" width="10.857" height="11.07" viewBox="0 0 10.857 11.07">
  <g id="Group_2838" data-name="Group 2838" transform="translate(-801.604 -106.233)">
    <g id="Group_2837" data-name="Group 2837" transform="translate(801.604 106.233)">
      <path id="Path_11440" data-name="Path 11440" d="M14.285,247.877H5.231a.322.322,0,0,1-.322-.322v-5.193a.322.322,0,0,1,.643,0v4.872h8.411v-.71a.322.322,0,1,1,.643,0v1.031A.322.322,0,0,1,14.285,247.877Z" transform="translate(-4.909 -236.807)" fill="#fff"/>
      <g id="Group_2835" data-name="Group 2835" transform="translate(3.225 5.543)">
        <g id="Group_2841" data-name="Group 2841" transform="translate(0 0)">
          <rect id="Rectangle_772" data-name="Rectangle 772" width="4.992" height="2.759" fill="none"/>
        </g>
      </g>
      <g id="Group_2836" data-name="Group 2836" transform="translate(0 0)">
        <path id="Path_11442" data-name="Path 11442" d="M15.447,4.423h-.839V.322A.322.322,0,0,0,14.287,0H8.578a.32.32,0,0,0-.041.005h0A.316.316,0,0,0,8.5.018l-.01,0A.323.323,0,0,0,8.45.038h0a.318.318,0,0,0-.035.022L8.4.067A.318.318,0,0,0,8.372.1L5,3.5l-.021.024-.012.017-.006.008-.013.022,0,.005L4.937,3.6l0,.006c0,.007-.006.015-.008.022l0,.007c0,.007,0,.014-.005.021l0,.01c0,.006,0,.013,0,.02s0,.008,0,.011,0,.013,0,.02,0,.007,0,.011v.1a.322.322,0,0,0,.322.322H8.6a.322.322,0,0,0,.322-.322V.643h5.043V4.423H9.046a.322.322,0,0,0-.322.322V8.282a.322.322,0,0,0,.322.322h6.4a.322.322,0,0,0,.322-.322V4.744A.322.322,0,0,0,15.447,4.423ZM5.9,3.508,8.279,1.1v2.4Zm9.224,4.453H9.368V5.066h5.758Z" transform="translate(-4.911)" fill="#fff"/>
        <path id="Path_11443" data-name="Path 11443" d="M243.9,262.283l-.408.59a.127.127,0,0,1-.1.038c-.12,0-.291-.081-.291-.183a.116.116,0,0,1,.025-.067l.484-.635-.464-.633a.121.121,0,0,1-.028-.074c0-.1.159-.176.283-.176a.142.142,0,0,1,.132.062l.372.552.372-.552a.142.142,0,0,1,.132-.062c.123,0,.282.076.282.176a.121.121,0,0,1-.028.074l-.464.633.484.635a.116.116,0,0,1,.025.067c0,.1-.171.183-.291.183a.123.123,0,0,1-.1-.038Z" transform="translate(-237.946 -255.497)" fill="#fff"/>
        <path id="Path_11444" data-name="Path 11444" d="M325.556,263.543c-.1,0-.19-.038-.19-.114v-1.514c0-.079.109-.112.218-.112s.218.033.218.112v1.3h.638c.084,0,.126.081.126.162s-.042.162-.126.162h-.884Z" transform="translate(-318.438 -256.143)" fill="#fff"/>
        <path id="Path_11445" data-name="Path 11445" d="M385.418,262.429c0-.288-.887-.238-.887-.795,0-.357.366-.493.716-.493.148,0,.557.024.557.21,0,.064-.05.2-.173.2-.1,0-.154-.091-.383-.091-.2,0-.28.069-.28.143,0,.238.887.193.887.793,0,.343-.294.528-.7.528-.366,0-.674-.152-.674-.31a.216.216,0,0,1,.19-.2c.131,0,.215.176.475.176C385.275,262.586,385.418,262.543,385.418,262.429Z" transform="translate(-376.274 -255.495)" fill="#fff"/>
      </g>
    </g>
  </g>
</svg>
