<svg xmlns="http://www.w3.org/2000/svg" width="68" height="52" viewBox="0 0 68 52">
  <g id="bot_responses" transform="translate(-33.248 -149.35)">
    <rect id="Rectangle_1025" data-name="Rectangle 1025" width="68" height="52" transform="translate(33.248 149.35)" fill="none"/>
    <g id="Group_859" data-name="Group 859" transform="translate(62.255 160.759)">
      <path id="Path_1403" data-name="Path 1403" d="M483.818,458.945v-4.088a.752.752,0,0,1,.752-.752h2.913a.752.752,0,0,0,.752-.752V440.211a.752.752,0,0,0-.752-.752H467.931a.752.752,0,0,0-.752.752v9.024a.752.752,0,0,1-1.5,0v-9.024a2.258,2.258,0,0,1,2.256-2.256h19.552a2.258,2.258,0,0,1,2.256,2.256v13.142a2.259,2.259,0,0,1-2.256,2.256h-2.161V460.5a.749.749,0,0,1-.424.677.764.764,0,0,1-.328.075h0a.754.754,0,0,1-.466-.162l-7.137-5.64a.752.752,0,0,1,.933-1.179" transform="translate(-465.675 -437.955)" fill="#fff"/>
    </g>
    <g id="Group_858" data-name="Group 858" transform="translate(48.248 167.241)">
      <path id="Path_1402" data-name="Path 1402" d="M463.774,472.323a.878.878,0,0,1-.875-.875v-5.69h-2.514a2.63,2.63,0,0,1-2.626-2.626v-15.3a2.629,2.629,0,0,1,2.626-2.626h22.762a2.629,2.629,0,0,1,2.626,2.626v15.3a2.63,2.63,0,0,1-2.626,2.626H472.389l-8.072,6.377a.871.871,0,0,1-.543.189Z" transform="translate(-457.758 -445.205)" fill="#f2f2f2"/>
    </g>
  </g>
</svg>
