<svg xmlns="http://www.w3.org/2000/svg" width="19.48" height="12.029" viewBox="0 0 19.48 12.029">
  <path id="ic_chevron_right_24px" d="M10.879,6,8.59,8.289l7.435,7.451L8.59,23.191l2.289,2.289,9.74-9.74Z" transform="translate(25.48 -8.59) rotate(90)" fill="#132466"/>
</svg>
