<svg xmlns="http://www.w3.org/2000/svg" xmlns:xlink="http://www.w3.org/1999/xlink" width="25.626" height="28.188" viewBox="0 0 25.626 28.188">
  <defs>
    <clipPath id="clip-path">
      <path id="Combined_Shape" data-name="Combined Shape" d="M6.407,28.188a3.844,3.844,0,0,1-3.845-3.844V7.688H1.281a1.282,1.282,0,0,1,0-2.564H6.407V3.844A3.843,3.843,0,0,1,10.251,0h5.125A3.844,3.844,0,0,1,19.22,3.844V5.125h5.125a1.282,1.282,0,0,1,0,2.564H23.064V24.345a3.843,3.843,0,0,1-3.844,3.844ZM5.125,24.345a1.282,1.282,0,0,0,1.282,1.281H19.22A1.281,1.281,0,0,0,20.5,24.345V7.688H5.125Zm3.845-20.5V5.125h7.687V3.844a1.281,1.281,0,0,0-1.281-1.281H10.251A1.281,1.281,0,0,0,8.969,3.844ZM14.094,20.5V12.813a1.281,1.281,0,0,1,2.562,0V20.5a1.281,1.281,0,1,1-2.562,0Zm-5.125,0V12.813a1.281,1.281,0,0,1,2.562,0V20.5a1.281,1.281,0,1,1-2.562,0Z" transform="translate(2 1)" fill="#24a6e2"/>
    </clipPath>
  </defs>
  <g id="Group_651" data-name="Group 651" transform="translate(-2 -1)" clip-path="url(#clip-path)">
    <g id="_Color" data-name="🎨Color" transform="translate(-0.563 -0.281)">
      <rect id="_Color_background" data-name="🎨Color background" width="30.752" height="30.752" fill="#24a6e2"/>
      <rect id="Rectangle" width="30.752" height="30.752" fill="#24a6e2"/>
    </g>
  </g>
</svg>
