<svg xmlns="http://www.w3.org/2000/svg" xmlns:xlink="http://www.w3.org/1999/xlink" width="25.626" height="28.188" viewBox="0 0 25.626 28.188">
  <defs>
    <clipPath id="clip-path">
      <path id="Path_1161" data-name="Path 1161" d="M8.281,34.188a1.281,1.281,0,0,1,0-2.563H31.345a1.281,1.281,0,0,1,0,2.563Zm14.991-27.8L28.4,11.51a1.239,1.239,0,0,1,0,1.794L14.3,27.4a1.163,1.163,0,0,1-.9.384H8.281A1.211,1.211,0,0,1,7,26.5V21.376a1.163,1.163,0,0,1,.384-.9L21.479,6.384A1.239,1.239,0,0,1,23.272,6.384Zm-.9,2.691L9.563,21.888v3.331h3.331L25.707,12.406Z" transform="translate(-5.158 -3.974)" fill="#24a6e2"/>
    </clipPath>
    <clipPath id="clip-path-2">
      <rect id="Rectangle_994" data-name="Rectangle 994" width="39.987" height="39.987" fill="#24a6e2"/>
    </clipPath>
    <clipPath id="clip-path-3">
      <rect id="Rectangle_989" data-name="Rectangle 989" width="33.322" height="38.321" fill="#24a6e2"/>
    </clipPath>
  </defs>
  <g id="Group_633" data-name="Group 633" transform="translate(-1.842 -2.026)" clip-path="url(#clip-path)">
    <g id="Group_632" data-name="Group 632" transform="translate(-5.338 -3.873)" clip-path="url(#clip-path-2)">
      <g id="Group_631" data-name="Group 631" transform="translate(3.332)">
        <g id="Group_627" data-name="Group 627" clip-path="url(#clip-path-3)">
          <g id="Group_626" data-name="Group 626" clip-path="url(#clip-path-3)">
            <rect id="Rectangle_987" data-name="Rectangle 987" width="49.984" height="53.316" transform="translate(-8.331 -6.664)" fill="#24a6e2"/>
          </g>
        </g>
        <g id="Group_630" data-name="Group 630" clip-path="url(#clip-path-3)">
          <g id="Group_629" data-name="Group 629" transform="translate(-3.332)" clip-path="url(#clip-path-2)">
            <g id="Group_628" data-name="Group 628" transform="translate(3.332)" clip-path="url(#clip-path-3)">
              <rect id="Rectangle_990" data-name="Rectangle 990" width="56.648" height="56.648" transform="translate(-11.663 -8.331)" fill="#24a6e2"/>
            </g>
          </g>
        </g>
      </g>
    </g>
  </g>
</svg>
