<svg xmlns="http://www.w3.org/2000/svg" width="25.835" height="25.835" viewBox="0 0 25.835 25.835">
  <g id="ic_carousel" transform="translate(-382.166 -325)">
    <g id="ic_carousel-2" data-name="ic_carousel" transform="translate(345.863 -463.664)">
      <g id="Layer_2" data-name="Layer 2" transform="translate(37.303 789.664)">
        <rect id="Rectangle_996" data-name="Rectangle 996" width="23.835" height="23.835" rx="4" fill="none" stroke="#24a6e2" stroke-width="2"/>
      </g>
      <g id="Layer_3" data-name="Layer 3" transform="translate(37.302 793.435)">
        <g id="Group_848" data-name="Group 848" transform="translate(0 3.331)">
          <path id="Path_1395" data-name="Path 1395" d="M66.885,811.965" transform="translate(-43.58 -801.499)" fill="none" stroke="#35424b" stroke-width="1"/>
          <path id="Path_1396" data-name="Path 1396" d="M61.136,809.911l-6.078-5.081-5.246,3.5-6.842-7.359L37.3,806.8v-2.239l5.69-5.878,7.061,7.593,5.1-3.4,5.984,4.926Z" transform="translate(-37.302 -798.68)" fill="#24a6e2" stroke="#24a6e2" stroke-width="0.5"/>
        </g>
        <g id="Group_849" data-name="Group 849" transform="translate(10.88)">
          <path id="Path_1397" data-name="Path 1397" d="M52.548,799.956A2.753,2.753,0,1,1,55.3,797.2a2.757,2.757,0,0,1-2.752,2.753Z" transform="translate(-49.794 -794.451)" fill="#24a6e2"/>
        </g>
      </g>
    </g>
  </g>
</svg>
