<svg xmlns="http://www.w3.org/2000/svg" width="21.768" height="23.612" viewBox="0 0 21.768 23.612">
  <g id="ic_form" transform="translate(-384.323 -552)">
    <g id="Group_957" data-name="Group 957">
      <g id="Group_938" data-name="Group 938" transform="translate(304.335 347.122)">
        <g id="Group_937" data-name="Group 937" transform="translate(80.988 205.878)">
          <g id="Group_936" data-name="Group 936" transform="translate(0 0)">
            <path id="Path_1499" data-name="Path 1499" d="M97.068,209.665H88.1m4.042,15.4H81.876a.889.889,0,0,1-.888-.888h0V206.766a.889.889,0,0,1,.888-.888H99.289a.889.889,0,0,1,.888.888v10.039m-3.287,7.063.177-8.7H88.1m3.936,5.781H88.1" transform="translate(-80.988 -205.878)" fill="#fff" stroke="#24a6e2" stroke-miterlimit="10" stroke-width="2"/>
          </g>
        </g>
        <path id="Path_1500" data-name="Path 1500" d="M152.973,268.593l-7.611-6.1v9.537l2.622-2.462,1.895,3.967,1.223-.584-1.9-3.975Z" transform="translate(-51.216 -45.043)" fill="#24a6e2"/>
        <path id="Path_1501" data-name="Path 1501" d="M155.044,302.873" transform="translate(-58.92 -77.171)"/>
        <path id="Path_1502" data-name="Path 1502" d="M95.139,274.34a1.11,1.11,0,1,0,1.11,1.11,1.11,1.11,0,0,0-1.11-1.11Z" transform="translate(-10.376 -54.469)" fill="#24a6e2"/>
        <path id="Path_1503" data-name="Path 1503" d="M95.139,246.738a1.11,1.11,0,1,0,1.11,1.11,1.11,1.11,0,0,0-1.11-1.11Z" transform="translate(-10.376 -32.509)" fill="#24a6e2"/>
        <path id="Path_1504" data-name="Path 1504" d="M95.139,220.657a1.111,1.111,0,1,0,1.11,1.11,1.11,1.11,0,0,0-1.11-1.11Z" transform="translate(-10.376 -11.758)" fill="#24a6e2"/>
      </g>
    </g>
  </g>
</svg>
