<svg xmlns="http://www.w3.org/2000/svg" width="40" height="16.34" viewBox="0 0 40 16.34">
  <g id="ic_quick_replies" transform="translate(-376 -217)">
    <g id="ic_quick_replies-2" data-name="ic_quick_replies" transform="translate(0 -1.83)">
      <g id="Group_922" data-name="Group 922" transform="translate(-1042 872)">
        <rect id="Rectangle_1024" data-name="Rectangle 1024" width="18.642" height="6.453" rx="3.226" transform="translate(1418 -653.17)" fill="#24a6e2"/>
        <g id="Rectangle_1025" data-name="Rectangle 1025" transform="translate(1439.359 -653.17)" fill="#24a6e2" stroke="#24a6e2" stroke-width="1">
          <rect width="18.642" height="6.453" rx="3.226" stroke="none"/>
          <rect x="0.5" y="0.5" width="17.642" height="5.453" rx="2.726" fill="none"/>
        </g>
      </g>
      <rect id="Rectangle_1025-2" data-name="Rectangle 1025" width="18.642" height="6.453" rx="3.226" transform="translate(387 228.717)" fill="#24a6e2"/>
    </g>
  </g>
</svg>
