<svg xmlns="http://www.w3.org/2000/svg" width="52.547" height="27.247" viewBox="0 0 52.547 27.247">
  <g id="ic_slider" transform="translate(-368.227 -437.408)">
    <g id="Group_925" data-name="Group 925" transform="translate(-1022.773 727.408)">
      <g id="Group_911" data-name="Group 911" transform="translate(1411.837 -281.499)">
        <path id="Path_1467" data-name="Path 1467" d="M297.871,416.34a.416.416,0,0,1-.323.136H287.459a.459.459,0,0,1-.459-.459V415.1a.459.459,0,0,1,.459-.459H293.7a.255.255,0,0,0,.183-.415l-.918-.916a.5.5,0,0,1-.136-.32.418.418,0,0,1,.136-.323l.643-.643a.5.5,0,0,1,.32-.136.418.418,0,0,1,.323.136l3.668,3.671a.494.494,0,0,1,.139.32.75.75,0,0,1-.184.323Z" transform="translate(-287 -411.89)" fill="#24a6e2"/>
        <path id="Path_1468" data-name="Path 1468" d="M305.961,419.652" transform="translate(-295.09 -415.202)" fill="#24a6e2"/>
      </g>
      <g id="Group_912" data-name="Group 912" transform="translate(1422.892 -270.605) rotate(180)">
        <path id="Path_1467-2" data-name="Path 1467" d="M10.871,4.45a.417.417,0,0,1-.323.136H.459A.459.459,0,0,1,0,4.128V3.212a.459.459,0,0,1,.459-.459H6.7a.255.255,0,0,0,.183-.415l-.919-.916a.5.5,0,0,1-.136-.32A.418.418,0,0,1,5.962.779L6.605.136A.5.5,0,0,1,6.925,0a.418.418,0,0,1,.323.136l3.668,3.671a.5.5,0,0,1,.139.32.751.751,0,0,1-.183.323Z" transform="translate(0)" fill="#24a6e2"/>
        <path id="Path_1468-2" data-name="Path 1468" d="M0,0" transform="translate(10.871 4.45)" fill="#24a6e2"/>
      </g>
      <g id="Group_916" data-name="Group 916" transform="translate(1391 -290)">
        <g id="Group_915" data-name="Group 915" transform="translate(4.541 7.769)">
          <path id="Path_1398" data-name="Path 1398" d="M226.328,567.11H219.7a.564.564,0,0,1,0-1.129h6.633a.564.564,0,1,1,0,1.129Z" transform="translate(-219.131 -565.981)" fill="#24a6e2"/>
          <path id="Path_1399" data-name="Path 1399" d="M227.972,569.527h-8.41a.585.585,0,0,1,0-1.129h8.41a.585.585,0,0,1,0,1.129Z" transform="translate(-219.131 -565.664)" fill="#24a6e2"/>
          <path id="Path_1400" data-name="Path 1400" d="M224.3,574.361H219.7a.564.564,0,0,1,0-1.129H224.3a.564.564,0,0,1,0,1.129Z" transform="translate(-219.131 -568.114)" fill="#24a6e2"/>
        </g>
        <g id="Rectangle_1031" data-name="Rectangle 1031" fill="none" stroke="#24a6e2" stroke-width="2">
          <rect width="18.164" height="27.247" rx="4" stroke="none"/>
          <rect x="1" y="1" width="16.164" height="25.247" rx="3" fill="none"/>
        </g>
      </g>
      <g id="Group_917" data-name="Group 917" transform="translate(1425.383 -290)">
        <g id="Group_915-2" data-name="Group 915" transform="translate(4.541 7.769)">
          <path id="Path_1398-2" data-name="Path 1398" d="M226.328,567.11H219.7a.564.564,0,0,1,0-1.129h6.633a.564.564,0,1,1,0,1.129Z" transform="translate(-219.131 -565.981)" fill="#24a6e2"/>
          <path id="Path_1399-2" data-name="Path 1399" d="M227.972,569.527h-8.41a.585.585,0,0,1,0-1.129h8.41a.585.585,0,0,1,0,1.129Z" transform="translate(-219.131 -565.664)" fill="#24a6e2"/>
          <path id="Path_1400-2" data-name="Path 1400" d="M224.3,574.361H219.7a.564.564,0,0,1,0-1.129H224.3a.564.564,0,0,1,0,1.129Z" transform="translate(-219.131 -568.114)" fill="#24a6e2"/>
        </g>
        <g id="Rectangle_1031-2" data-name="Rectangle 1031" transform="translate(0)" fill="none" stroke="#24a6e2" stroke-width="2">
          <rect width="18.164" height="27.247" rx="4" stroke="none"/>
          <rect x="1" y="1" width="16.164" height="25.247" rx="3" fill="none"/>
        </g>
      </g>
    </g>
  </g>
</svg>
