<svg xmlns="http://www.w3.org/2000/svg" width="24.039" height="24.131" viewBox="0 0 24.039 24.131">
  <path id="ic_zoom_in_24px" d="M21.617,19.383l-1.007-1.07a8.638,8.638,0,0,0,1.752-5.633,9.681,9.681,0,1,0-9.681,9.681,9.988,9.988,0,0,0,5.6-1.79c-.007.018,1.1,1.045,1.1,1.045l5.437,5.514,2.219-2.219Zm-8.936,0a6.7,6.7,0,1,1,6.7-6.7A6.693,6.693,0,0,1,12.681,19.383Z" transform="translate(-3 -3)" fill="#24a6e2"/>
</svg>
