<svg xmlns="http://www.w3.org/2000/svg" width="66" height="66" viewBox="0 0 66 66">
  <g id="login_logo" transform="translate(-944.989 -491.989)">
    <circle id="Ellipse_2" data-name="Ellipse 2" cx="33" cy="33" r="33" transform="translate(944.989 491.989)" fill="#050000"/>
    <g id="Group_13" data-name="Group 13" transform="translate(964.242 511.138)">
      <g id="Group_11" data-name="Group 11" transform="translate(6.094)">
        <path id="Path_15" data-name="Path 15" d="M11.741,14.959A7.42,7.42,0,0,1,4.4,7.479,7.42,7.42,0,0,1,11.741,0a7.42,7.42,0,0,1,7.341,7.479A7.247,7.247,0,0,1,11.741,14.959Zm0-13.574A6.03,6.03,0,0,0,5.785,7.479a6.03,6.03,0,0,0,5.956,6.094A6.03,6.03,0,0,0,17.7,7.479,6.03,6.03,0,0,0,11.741,1.385Z" transform="translate(-4.4)" fill="#fff"/>
      </g>
      <g id="Group_12" data-name="Group 12" transform="translate(0 14.128)">
        <path id="Path_16" data-name="Path 16" d="M26.87,23.774H25.485a12.089,12.089,0,0,0-12.05-12.188A12.178,12.178,0,0,0,1.385,23.774H0A13.567,13.567,0,0,1,13.435,10.2,13.567,13.567,0,0,1,26.87,23.774Z" transform="translate(0 -10.2)" fill="#fff"/>
      </g>
    </g>
  </g>
</svg>
