<svg id="next_arrow" xmlns="http://www.w3.org/2000/svg" width="66.396" height="66.396" viewBox="0 0 66.396 66.396">
  <g id="Group_18" data-name="Group 18">
    <path id="Path_17" data-name="Path 17" d="M33.2,66.4A33.2,33.2,0,1,1,66.4,33.2,33.259,33.259,0,0,1,33.2,66.4Zm0-63.582A30.385,30.385,0,1,0,63.582,33.2,30.258,30.258,0,0,0,33.2,2.813Z" fill="#fff"/>
  </g>
  <g id="Group_19" data-name="Group 19" transform="translate(26.024 18.99)">
    <path id="Path_18" data-name="Path 18" d="M10.8,35.024a1.692,1.692,0,0,1-1.125-.281,1.36,1.36,0,0,1,0-1.969L21.207,21.239,9.953,9.141a1.393,1.393,0,0,1,1.969-1.969l12.66,12.66a1.36,1.36,0,0,1,0,1.969l-12.66,12.66A2.133,2.133,0,0,1,10.8,35.024Z" transform="translate(-9.25 -6.75)" fill="#fff"/>
  </g>
</svg>
