<svg xmlns="http://www.w3.org/2000/svg" xmlns:xlink="http://www.w3.org/1999/xlink" version="1.1" width="26.4" height="28.60000000000001" style="" xml:space="preserve"><rect id="backgroundrect" width="100%" height="100%" x="0" y="0" fill="none" stroke="none" class="" style=""/>
















<g class="currentLayer" style=""><title>Layer 1</title><g id="svg_1" class="" fill-opacity="1" fill="#3ea6e2">
	<path d="M25.047342929240497,8.073512508736904 c-0.21114360970952922,-0.5789191021563046 -0.4647267521115938,-1.037578728098143 -0.760527521152899,-1.3753449322471571 l-4.434847951599967,-5.06788774250759 c-0.2954124334480408,-0.33757602047550656 -0.6967850073441114,-0.6272891497850025 -1.2036184330682984,-0.8687590205814727 C18.141792980261766,0.5203045208355556 17.677066228150174,0.3996646772740741 17.254779008731116,0.3996646772740741 H2.5563877566763833 C2.134156013770649,0.3996646772740741 1.7750565430271426,0.5684843847907451 1.4793667270124846,0.9063773780554308 c-0.2956898160146589,0.3377028095911781 -0.44336829448201737,0.7479923879043191 -0.44336829448201737,1.230741945823752 v24.32569633818607 c0,0.4828763470351047 0.14767847846735874,0.8931659253482456 0.44336829448201737,1.2309321294972597 c0.2956898160146589,0.33757602047550656 0.6547892867581647,0.5065859116656856 1.0770210296638987,0.5065859116656856 h21.28733673949582 c0.4226200784990003,0 0.7816085962158582,-0.16900989119017862 1.0771874592038695,-0.5065859116656856 c0.2954124334480408,-0.3377662041490139 0.44309091191539945,-0.7480557824621551 0.44309091191539945,-1.2309321294972597 V9.666554352592113 C25.364002867291468,9.183741400114846 25.258486538950027,8.652875372798057 25.047342929240497,8.073512508736904 zM11.172777900040865,3.295337895538807 c0,-0.15683813608570954 0.05020624455783611,-0.2923123061807628 0.15056325716018468,-0.40718324497918856 c0.10024605957570133,-0.11436378233573971 0.2190767511148004,-0.17167246261928107 0.3563256450773275,-0.17167246261928107 h3.041166983885096 c0.13691603488258502,0 0.2556912499083603,0.05718189116786993 0.35599278599738565,0.17167246261928107 c0.10057891865564281,0.11487093879842586 0.1507296867001554,0.25034510889347883 0.1507296867001554,0.40718324497918856 v5.791853592992151 c0,0.1570917143170527 -0.05048362712445403,0.29275606808561344 -0.1507296867001554,0.4074368232105318 c-0.1003015360890249,0.1143003877779039 -0.2190767511148004,0.17167246261928107 -0.35599278599738565,0.17167246261928107 h-3.041166983885096 c-0.13724889396252649,0 -0.2561350620149488,-0.05718189116786993 -0.3563256450773275,-0.17167246261928107 c-0.10035701260234844,-0.11487093879842586 -0.15056325716018468,-0.25034510889347883 -0.15056325716018468,-0.4074368232105318 V3.295337895538807 zM19.282390094194486,25.883706376235438 H7.117888588194071 V18.93338063335232 h12.164501506000413 V25.883706376235438 zM23.33739035906792,25.883706376235438 h-2.027777515003339 h-0.0003883355932650311 V18.354144558406837 c0,-0.4828763470351047 -0.1477339549806822,-0.8929123471169033 -0.4433128179686936,-1.2309321294972597 c-0.29557886298801184,-0.3377662041490139 -0.6546228572181942,-0.5067760953391923 -1.076799123610604,-0.5067760953391923 H6.611110638983206 c-0.4223981724457057,0 -0.7814976431892117,0.16900989119017862 -1.0771874592038695,0.5067760953391923 c-0.2955233864746879,0.3377662041490139 -0.44336829448201737,0.7480557824621551 -0.44336829448201737,1.2309321294972597 v7.529561817828602 H3.063165705887247 V2.716228609708995 h2.02733370289675 v7.529435028712932 c0,0.48274955791943325 0.14767847846735874,0.8928489525590672 0.44336829448201737,1.230741945823752 c0.2956898160146589,0.3377028095911781 0.6547892867581647,0.5067127007813562 1.0771874592038695,0.5067127007813562 h9.123445475141965 c0.4221762663924115,0 0.7816085962158582,-0.16900989119017862 1.076799123610604,-0.5067127007813562 c0.2954124334480408,-0.3377028095911781 0.4434792475086643,-0.7479923879043191 0.4434792475086643,-1.230741945823752 V2.716228609708995 c0.15832996902548535,0 0.3640923569426278,0.06022482994398722 0.6177864523713393,0.18086467350546853 c0.25363861891538814,0.12057644900364586 0.433049663003832,0.24121629256512728 0.5386214678585971,0.36185613612660916 l4.4509916169771255,5.086145375164295 c0.10551632834144106,0.1206398435614813 0.21114360970952922,0.3290177551676775 0.3166599380509707,0.6244997892402283 c0.10590466393470604,0.29573561230389445 0.15849639856545608,0.5280766667720127 0.15849639856545608,0.6969597688465207 V25.883706376235438 z" id="svg_2" fill="#3ea6e2"/>
</g><g id="svg_3">
</g><g id="svg_4">
</g><g id="svg_5">
</g><g id="svg_6">
</g><g id="svg_7">
</g><g id="svg_8">
</g><g id="svg_9">
</g><g id="svg_10">
</g><g id="svg_11">
</g><g id="svg_12">
</g><g id="svg_13">
</g><g id="svg_14">
</g><g id="svg_15">
</g><g id="svg_16">
</g><g id="svg_17">
</g></g></svg>