<svg xmlns="http://www.w3.org/2000/svg" width="68" height="52" viewBox="0 0 68 52">
  <g id="work_flow" transform="translate(-37.654 -289.256)">
    <rect id="Rectangle_1026" data-name="Rectangle 1026" width="68" height="52" transform="translate(37.654 289.256)" fill="none"/>
    <rect id="Rectangle_998" data-name="Rectangle 998" width="10.757" height="10.757" rx="4" transform="translate(49.654 324.006)" fill="#f2f2f2"/>
    <rect id="Rectangle_999" data-name="Rectangle 999" width="10.757" height="10.757" rx="4" transform="translate(66.509 324.006)" fill="#f2f2f2"/>
    <rect id="Rectangle_1002" data-name="Rectangle 1002" width="10.757" height="10.757" rx="4" transform="translate(66.509 294.819)" fill="#f2f2f2"/>
    <path id="Path_1404" data-name="Path 1404" d="M1027.461,412.811v-4.684a1.88,1.88,0,0,1,1.881-1.881h30.128a1.88,1.88,0,0,1,1.881,1.881v4.684" transform="translate(-972.518 -91.438)" fill="none" stroke="#fff" stroke-linecap="round" stroke-miterlimit="10" stroke-width="1"/>
    <line id="Line_129" data-name="Line 129" y2="13.108" transform="translate(71.888 308.264)" fill="none" stroke="#fff" stroke-linecap="round" stroke-miterlimit="10" stroke-width="1"/>
    <rect id="Rectangle_1001" data-name="Rectangle 1001" width="10.757" height="10.757" rx="4" transform="translate(83.374 324.006)" fill="#f2f2f2"/>
  </g>
</svg>
