<svg xmlns="http://www.w3.org/2000/svg" width="17.31" height="17.648" viewBox="0 0 17.31 17.648">
  <g id="Group_2853" data-name="Group 2853" transform="translate(-801.604 -106.233)">
    <g id="Group_2837" data-name="Group 2837" transform="translate(801.604 106.233)">
      <path id="Path_11440" data-name="Path 11440" d="M19.857,251.345H5.422a.513.513,0,0,1-.513-.513v-8.28a.513.513,0,1,1,1.026,0v7.767H19.344v-1.132a.513.513,0,1,1,1.026,0v1.644A.513.513,0,0,1,19.857,251.345Z" transform="translate(-4.909 -233.697)" fill="#164883"/>
      <g id="Group_2835" data-name="Group 2835" transform="translate(5.141 8.838)">
        <g id="Group_2841" data-name="Group 2841">
          <rect id="Rectangle_772" data-name="Rectangle 772" width="7.959" height="4.399" fill="none"/>
        </g>
      </g>
      <g id="Group_2836" data-name="Group 2836" transform="translate(0 0)">
        <path id="Path_11442" data-name="Path 11442" d="M21.708,7.051H20.371V.513A.513.513,0,0,0,19.859,0h-9.1a.511.511,0,0,0-.066.008h0a.5.5,0,0,0-.063.018l-.016.006a.516.516,0,0,0-.059.026h0A.506.506,0,0,0,10.495.1l-.014.01a.508.508,0,0,0-.052.045L5.059,5.579a.506.506,0,0,0-.034.038l-.02.027L5,5.658c-.007.011-.014.023-.02.034l0,.008c-.006.012-.012.024-.017.036l0,.009c0,.012-.009.024-.013.036l0,.011c0,.011-.006.022-.008.034l0,.015c0,.01,0,.021,0,.031s0,.012,0,.018,0,.021,0,.031,0,.011,0,.017v.165a.513.513,0,0,0,.513.513h5.37a.513.513,0,0,0,.513-.513V1.026h8.039V7.051H11.5a.513.513,0,0,0-.513.513V13.2a.513.513,0,0,0,.513.513h10.2a.513.513,0,0,0,.513-.513V7.564A.513.513,0,0,0,21.708,7.051ZM6.489,5.592,10.281,1.76V5.592Zm14.706,7.1H12.016V8.076H21.2Z" transform="translate(-4.911)" fill="#164883"/>
        <path id="Path_11443" data-name="Path 11443" d="M244.376,262.961l-.651.941a.2.2,0,0,1-.165.061c-.192,0-.464-.129-.464-.292a.185.185,0,0,1,.04-.106l.771-1.013-.74-1.009a.193.193,0,0,1-.045-.117c0-.159.254-.281.45-.281a.227.227,0,0,1,.21.1l.593.88.593-.88a.226.226,0,0,1,.21-.1c.2,0,.45.121.45.281a.194.194,0,0,1-.045.117l-.74,1.009.772,1.013a.185.185,0,0,1,.04.106c0,.163-.272.292-.464.292a.2.2,0,0,1-.165-.061Z" transform="translate(-234.886 -252.142)" fill="#164883"/>
        <path id="Path_11444" data-name="Path 11444" d="M325.669,264.577c-.152,0-.3-.061-.3-.182v-2.413c0-.125.174-.178.348-.178s.348.053.348.178v2.079h1.017c.134,0,.2.129.2.258s-.067.258-.2.258h-1.409Z" transform="translate(-314.32 -252.779)" fill="#164883"/>
        <path id="Path_11445" data-name="Path 11445" d="M385.975,263.194c0-.459-1.414-.379-1.414-1.267,0-.569.584-.786,1.142-.786.236,0,.887.038.887.334,0,.1-.08.311-.277.311-.161,0-.245-.144-.611-.144-.317,0-.446.11-.446.228,0,.38,1.414.307,1.414,1.264,0,.546-.468.842-1.115.842-.584,0-1.075-.243-1.075-.493a.344.344,0,0,1,.3-.319c.209,0,.343.281.758.281C385.747,263.444,385.975,263.376,385.975,263.194Z" transform="translate(-371.397 -252.14)" fill="#164883"/>
      </g>
    </g>
  </g>
</svg>
