<svg xmlns="http://www.w3.org/2000/svg" width="100.759" height="23" viewBox="0 0 100.759 23">
  <g id="Group_2794" data-name="Group 2794" transform="translate(-51 -20.816)">
    <g id="Group_141" data-name="Group 141" transform="translate(132.157 23)">
      <path id="Path_301" data-name="Path 301" d="M23.274,18.131H19.927a4.02,4.02,0,0,1-2.664-.683,2.873,2.873,0,0,1-1.093-2.254,13.16,13.16,0,0,1-.068-1.639V1.466a7.478,7.478,0,0,0-.751-.683L15.01.51,14.8.3,14.6.1V14.989a3.465,3.465,0,0,0,.273,1.639,3.581,3.581,0,0,0,.683,1.229,4.853,4.853,0,0,0,3.756,1.912h2.322c.137,0,.137,0,.273-.137a9.968,9.968,0,0,1,1.366-1.5Z" transform="translate(-4.628 -0.1)" fill="#fff" fill-rule="evenodd"/>
      <path id="Path_302" data-name="Path 302" d="M1.5,18.131s.341.273.341.341l.82.82.2.2c.068.068.137.2.2.2H5.393a5.029,5.029,0,0,0,2.937-.956c.137-.068.2-.2.341-.273l.546-.546a4.347,4.347,0,0,0,.956-2.39V.1c-.068,0-.342.341-.41.41l-.41.41c-.068.068-.068.068-.137.068l-.341.273-.2.2V13.555a6.043,6.043,0,0,1-.41,2.937,3.589,3.589,0,0,1-.751.956,4.093,4.093,0,0,1-2.664.683Z" transform="translate(-0.476 -0.1)" fill="#fff" fill-rule="evenodd"/>
      <path id="Path_303" data-name="Path 303" d="M25.054,17.836h0l-.546-.546c-.137-.068-.2-.273-.273-.273H21.5c-1.366,0-2.664.2-2.8-1.571V4.176c0-.41.068-.273-.2-.546a.067.067,0,0,1-.068-.068l-.82-.82c-.068-.068-.342-.341-.41-.341V14.762a4.064,4.064,0,0,0,.546,2.527,2.889,2.889,0,0,0,1.981,1.161,10.575,10.575,0,0,0,1.5.068H24.3c.068,0,.137-.068.2-.137l.2-.2.341-.342Z" transform="translate(-5.452 -0.829)" fill="#fff" fill-rule="evenodd"/>
      <path id="Path_304" data-name="Path 304" d="M0,17.867H0l.683.683a.238.238,0,0,0,.137.068H3.961a11.067,11.067,0,0,0,1.5-.068,2.667,2.667,0,0,0,1.981-1.161,4.333,4.333,0,0,0,.546-2.527V2.5a.823.823,0,0,0-.341.341c-.2.2-.546.478-.751.683l-.068.068-.41.273c-.068.068,0,.2,0,.341V15.477c-.068.956-.41,1.5-1.3,1.571a10.041,10.041,0,0,1-1.434,0h-2.6c-.341,0-.2-.068-.478.2A2.608,2.608,0,0,0,0,17.867Z" transform="translate(0 -0.861)" fill="#fff" fill-rule="evenodd"/>
      <path id="Path_305" data-name="Path 305" d="M5.083,16.065H3.239c-.273,0-.137,0-.41.2l-.478.478a7.5,7.5,0,0,0-.751.82H5.152c.751,0,1.3-.273,1.434-.888a5.841,5.841,0,0,0,0-1.093V5A13.161,13.161,0,0,0,5.493,6.024L5.152,6.3a.238.238,0,0,0-.068.137v9.63Z" transform="translate(-0.507 -1.653)" fill="#fff" fill-rule="evenodd"/>
      <path id="Path_306" data-name="Path 306" d="M19.8,7.427V15.76a5.169,5.169,0,0,0,.068,1.024,1.314,1.314,0,0,0,1.366.82h3.552c0-.068-.273-.273-.341-.341l-.751-.751a.067.067,0,0,0-.068-.068l-.273-.273H21.3v-9.7c0-.137,0-.2-.068-.2l-.41-.41a4.419,4.419,0,0,0-.615-.546L19.8,4.9V7.427Z" transform="translate(-6.277 -1.622)" fill="#fff" fill-rule="evenodd"/>
    </g>
    <text id="Jumbo" transform="translate(51 39.816)" fill="#fff" font-size="21" font-family="ArialMT, Arial"><tspan x="0" y="0">JUMBO</tspan></text>
  </g>
</svg>
