<svg xmlns="http://www.w3.org/2000/svg" width="32.622" height="32.622" viewBox="0 0 32.622 32.622">
  <g id="add_ic" transform="translate(-508.12 -302.943)">
    <g id="Layer_4" data-name="Layer 4" transform="translate(508.12 302.943)">
      <g id="Group_880" data-name="Group 880">
        <g id="Group_879" data-name="Group 879">
          <path id="Path_1433" data-name="Path 1433" d="M524.431,335.565a16.311,16.311,0,1,1,16.311-16.311,16.33,16.33,0,0,1-16.311,16.311Z" transform="translate(-508.12 -302.943)" fill="#24a6e2"/>
        </g>
      </g>
    </g>
    <g id="Layer_3" data-name="Layer 3" transform="translate(515.393 310.237)">
      <path id="Path_1434" data-name="Path 1434" d="M535.1,320.934h-6.841v-6.842a1.087,1.087,0,0,0-2.175,0v6.842h-6.842a1.087,1.087,0,1,0,0,2.175h6.842v6.841a1.087,1.087,0,0,0,2.175,0v-6.841H535.1a1.087,1.087,0,1,0,0-2.175Z" transform="translate(-518.152 -313.005)" fill="#fff"/>
    </g>
  </g>
</svg>
