<svg xmlns="http://www.w3.org/2000/svg" width="1473.127" height="1079.519" viewBox="0 0 1473.127 1079.519">
  <g id="Group_737" data-name="Group 737" transform="translate(-261.696 1607.92)" opacity="0.202">
    <g id="triangle36" transform="translate(1094.7 -919.866)">
      <path id="Path_1188" data-name="Path 1188" d="M756.87,471.307,533.792,372.147l-.134.706L806.3,360.474l-.353-.521-49.564,111.54Zm49.392-111.575L533.625,372.111l-.134.712,223.074,99.162.34.147.152-.333L806.62,360.257l.24-.55Z" transform="translate(-533.491 -359.707)" fill="#b2b2b2"/>
    </g>
    <g id="triangle36-2" data-name="triangle36" transform="translate(1094.112 -1118.442)">
      <path id="Path_1189" data-name="Path 1189" d="M682.178,208.913l-148.7,210.678-.436.62.755-.034L806.436,407.8l.633-.029-.332-.537-123.944-198.3-.3-.478ZM806.4,407.056,533.765,419.435l.318.586,148.7-210.681-.621-.014,123.944,198.3Z" transform="translate(-533.043 -208.455)" fill="#b2b2b2"/>
    </g>
    <g id="triangle36-3" data-name="triangle36" transform="translate(1094.558 -907.427)">
      <path id="Path_1190" data-name="Path 1190" d="M756.9,468.343,533.826,369.182l-.442.565L713.07,599.057l.429.545.215-.654L757.1,468.8l.106-.322ZM713.655,598.6,533.967,369.29l-.442.568L756.6,469.02l-.2-.458L713.014,598.713Z" transform="translate(-533.383 -369.182)" fill="#b2b2b2"/>
    </g>
    <g id="triangle36-4" data-name="triangle36" transform="translate(883.294 -709.781)">
      <path id="Path_1191" data-name="Path 1191" d="M516.22,669.41,497.608,520.694l-.123-.968-.551.8L373,700.24l-.529.768.914-.2L515.93,669.82l.33-.07ZM373.606,700.658,497.544,520.95l-.672-.163,18.61,148.719.29-.408L373.221,700.087Z" transform="translate(-372.466 -519.726)" fill="#b2b2b2"/>
    </g>
    <g id="triangle36-5" data-name="triangle36" transform="translate(765.714 -709.157)">
      <path id="Path_1192" data-name="Path 1192" d="M525.252,520.222l-241.665,6.186-.68.018.378.562L401.016,700.5l.306.453.3-.448L525.565,520.8l.415-.6ZM401.627,700.092,283.9,526.571l-.3.578,241.666-6.186-.316-.584L401.016,700.092Z" transform="translate(-282.907 -520.201)" fill="#b2b2b2"/>
    </g>
    <g id="triangle36-6" data-name="triangle36" transform="translate(344.399 -759.065)">
      <path id="Path_1193" data-name="Path 1193" d="M154.721,643.653l-192.094-6.211.314.55L49.7,483.082l-.641.026L154.4,644.223ZM49.054,482.719-37.705,637.633l-.3.53.609.021,192.086,6.206.714.025-.387-.595L49.693,482.7l-.333-.512Z" transform="translate(38.002 -482.187)" fill="#b2b2b2"/>
    </g>
    <g id="triangle36-7" data-name="triangle36" transform="translate(864.78 -907.895)">
      <path id="Path_1194" data-name="Path 1194" d="M588.093,369.484l-86.78,198.321.521-.173L359.328,487.059l-.015.654L588.6,369.961ZM358.959,487.7l142.512,80.574.353.2.168-.378,86.78-198.32.418-.955-.923.478L358.975,487.054l-.61.315Z" transform="translate(-358.364 -368.825)" fill="#b2b2b2"/>
    </g>
    <g id="triangle36-8" data-name="triangle36" transform="translate(765.384 -789.79)">
      <path id="Path_1195" data-name="Path 1195" d="M525.33,539.438l-241.665,6.186.249.648,99.161-86.76-.429.043L525.158,540.13ZM382.587,458.957l-99.158,86.76-.773.674,1.028-.026,241.666-6.186,1.335-.034-1.163-.659L383.015,458.913l-.231-.129Z" transform="translate(-282.656 -458.784)" fill="#b2b2b2"/>
    </g>
    <g id="triangle36-9" data-name="triangle36" transform="translate(1540.206 -1007.27)">
      <path id="Path_1196" data-name="Path 1196" d="M1066.108,517.255l-12.4-223.081-.06-1.041-.614.844-179.7,247.859-.505.7.85-.113,192.113-24.778.338-.046ZM873.932,542.269l179.7-247.859-.668-.2,12.4,223.081.322-.387-192.11,24.778Z" transform="translate(-872.826 -293.133)" fill="#b2b2b2"/>
    </g>
    <g id="triangle36-10" data-name="triangle36" transform="translate(1316.835 -808.547)">
      <path id="Path_1197" data-name="Path 1197" d="M883.763,636.974,704.051,444.859l-.351.62L926.78,495.057l-.269-.473-43.376,142.53Zm43.179-142.639L703.863,444.752l-1.175-.255.822.873L883.222,637.479l.439.467L927.217,494.8l.12-.382Z" transform="translate(-702.688 -444.497)" fill="#b2b2b2"/>
    </g>
    <g id="triangle36-11" data-name="triangle36" transform="translate(1317.407 -920.092)">
      <path id="Path_1198" data-name="Path 1198" d="M752.868,360.006,703.3,471.546l-.181.417.441.1L926.643,521.64l1.338.294-1-.93L753.458,359.889l-.379-.354ZM926.806,520.918,703.727,471.335l.256.517,49.562-111.541-.595.118L926.473,521.551Z" transform="translate(-703.123 -359.535)" fill="#b2b2b2"/>
    </g>
    <g id="triangle36-12" data-name="triangle36" transform="translate(518.148 -1589.934)">
      <path id="Path_1199" data-name="Path 1199" d="M95.084,92.2V-149.464l-.676.206L236.932,61.417l.231-.57L94.633,91.838ZM237.546,61,95.016-149.68l-.676-.993V92.663l.452-.1L237.315,61.575l.534-.118Z" transform="translate(-94.34 150.673)" fill="#b2b2b2"/>
    </g>
    <g id="triangle36-13" data-name="triangle36" transform="translate(697.269 -1118.845)">
      <path id="Path_1200" data-name="Path 1200" d="M435.887,209.137,392.492,395.042l.358-.285H231.732l.249.643L436.5,209.5ZM231.732,395.495H393.143l.071-.286,43.389-185.9.272-1.159-.88.8-204.509,185.9-.713.643Z" transform="translate(-230.774 -208.148)" fill="#b2b2b2"/>
    </g>
    <g id="triangle36-14" data-name="triangle36" transform="translate(685.455 -1161.596)">
      <path id="Path_1201" data-name="Path 1201" d="M439.134,219.051,222.242,175.673l-.467-.088.025.474,12.38,229.273.043.779.574-.523,204.515-185.9.54-.494ZM234.921,405.3,222.538,176.024l-.442.383,216.892,43.371-.176-.639L234.3,405.04Z" transform="translate(-221.775 -175.585)" fill="#b2b2b2"/>
    </g>
    <g id="triangle36-15" data-name="triangle36" transform="translate(1509.599 -1068.702)">
      <path id="Path_1202" data-name="Path 1202" d="M1060.329,308.618l-179.7,247.859.668.181L850.3,246.819l-.471.391,210.692,61.984ZM849.566,246.891l30.991,309.841.093.968.576-.79,179.7-247.859.31-.424-.5-.146L850.038,246.5l-.525-.158Z" transform="translate(-849.513 -246.341)" fill="#b2b2b2"/>
    </g>
    <g id="triangle36-16" data-name="triangle36" transform="translate(1366.959 -1069.025)">
      <path id="Path_1203" data-name="Path 1203" d="M915.169,556.5,741.648,395.383l.015.526L884.193,247.19l-.634-.222L914.55,556.809ZM883.657,246.673,741.126,395.4l-.26.27.276.256L914.664,557.044l.722.663-.1-.973L884.3,246.9l-.079-.8Z" transform="translate(-740.866 -246.095)" fill="#b2b2b2"/>
    </g>
    <g id="triangle36-17" data-name="triangle36" transform="translate(1063.425 -1174.078)">
      <path id="Path_1204" data-name="Path 1204" d="M689.492,222.172,540.792,432.85l.67.173L510.47,166.559l-.477.394,179.687,55.79ZM509.739,166.647l30.984,266.459.114.969.559-.8L690.1,222.6l.294-.417-.489-.147-179.689-55.79-.545-.167Z" transform="translate(-509.669 -166.078)" fill="#b2b2b2"/>
    </g>
    <g id="triangle36-18" data-name="triangle36" transform="translate(1540.117 -783.572)">
      <path id="Path_1205" data-name="Path 1205" d="M1065.712,463.595,873.6,488.373l-.844.112.658.541,142.53,117.734.408.339.179-.5,49.576-142.511.2-.566Zm-49.293,142.595L873.888,488.457l-.192.654,192.114-24.778-.4-.487-49.578,142.5Z" transform="translate(-872.758 -463.52)" fill="#b2b2b2"/>
    </g>
    <g id="triangle36-19" data-name="triangle36" transform="translate(319.758 -1273.903)">
      <path id="Path_1206" data-name="Path 1206" d="M42.668,233.454-56.5,289.224l.551.369L-31.139,91.31l-.695.13L42.522,233.95ZM-31.874,91.223-56.673,289.5l-.1.733.638-.358L43.033,234.1l.314-.179-.168-.319L-31.177,91.095l-.55-1.052Z" transform="translate(56.77 -90.043)" fill="#b2b2b2"/>
    </g>
    <g id="triangle36-20" data-name="triangle36" transform="translate(933.401 -1607.92)">
      <path id="Path_1207" data-name="Path 1207" d="M609.537-95.846,547.551-164.02l-.314-.353-.268.391L410.632,40.512l.515.512L609.473-95.3l.349-.234ZM411.248,40.925,547.59-163.568l-.584.049,61.981,68.167.064-.551L410.732,40.413Z" transform="translate(-410.632 164.373)" fill="#b2b2b2"/>
    </g>
    <g id="triangle36-21" data-name="triangle36" transform="translate(964.205 -1174.807)">
      <path id="Path_1208" data-name="Path 1208" d="M565.107,433.2,534.115,166.732l-.137-1.209-.557,1.08L434.263,358.712l-.168.315.31.176,130.151,74.358.633.364ZM434.922,359.052,534.08,166.94l-.7-.119L564.368,433.28l.557-.364L434.774,358.561Z" transform="translate(-434.095 -165.523)" fill="#b2b2b2"/>
    </g>
    <g id="triangle36-22" data-name="triangle36" transform="translate(864.698 -981.962)">
      <path id="Path_1209" data-name="Path 1209" d="M588.286,386.954,358.994,504.7l.5.5,99.142-192.107-.517.151L588.27,387.6Zm-130.309-74.2-99.146,192.11-.529,1.025,1.031-.525L588.623,387.612l.61-.315-.595-.339L458.488,312.6l-.335-.193Z" transform="translate(-358.302 -312.41)" fill="#b2b2b2"/>
    </g>
    <g id="triangle36-23" data-name="triangle36" transform="translate(902.235 -1174.208)">
      <path id="Path_1210" data-name="Path 1210" d="M548.4,166.285l-161.122,55.78-.382.131.165.376L449.022,358.89l.314.7.355-.677L548.849,166.8l.424-.818Zm-98.7,192.3L387.736,222.262l-.215.505,161.118-55.784-.448-.523L449.032,358.569Z" transform="translate(-386.893 -165.979)" fill="#b2b2b2"/>
    </g>
    <g id="triangle36-24" data-name="triangle36" transform="translate(858.814 -1118.913)">
      <path id="Path_1211" data-name="Path 1211" d="M397.388,209.153,353.993,395.058l-.173.742.694-.324,105.352-49.582.328-.152-.154-.333L398.084,209.085l-.452-.989Zm62.16,136.072L354.193,394.807l.523.417,43.389-185.9-.7.071L459.37,345.712Z" transform="translate(-353.82 -208.096)" fill="#b2b2b2"/>
    </g>
    <g id="triangle36-25" data-name="triangle36" transform="translate(858.966 -982.252)">
      <path id="Path_1212" data-name="Path 1212" d="M360.9,505.089,354.69,362.56l-.211.347L459.83,313.325l-.487-.5L360.2,504.933Zm98.612-192.433L354.157,362.239l-.221.1.012.244,6.211,142.533.059,1.39.642-1.239L460,313.163l.5-.974Z" transform="translate(-353.936 -312.189)" fill="#b2b2b2"/>
    </g>
    <g id="triangle36-26" data-name="triangle36" transform="translate(555.135 -1379.2)">
      <path id="Path_1213" data-name="Path 1213" d="M253.595,227.857l-24.8-216.9L228.67,9.84l-.567.964L122.755,190.516l-.242.414.465.126,130.146,37.2.534.154ZM123.4,190.89,228.742,11.177l-.684-.148,24.8,216.914.473-.4-130.152-37.2Z" transform="translate(-122.513 -9.84)" fill="#b2b2b2"/>
    </g>
    <g id="triangle36-27" data-name="triangle36" transform="translate(518.066 -1378.592)">
      <path id="Path_1214" data-name="Path 1214" d="M237.182,10.482,94.652,41.472l-.374.079.091.373,37.181,148.724.223.882.461-.785L237.576,11.032,238,10.3ZM132.269,190.47,95.084,41.746l-.273.453L237.335,11.209l-.4-.55L131.589,190.371Z" transform="translate(-94.278 -10.303)" fill="#b2b2b2"/>
    </g>
    <g id="triangle36-28" data-name="triangle36" transform="translate(430.833 -759.119)">
      <path id="Path_1215" data-name="Path 1215" d="M134.421,643.834,29.094,482.712l-.452.545,142.509,55.775-.213-.467L133.764,643.913Zm37-105.5L28.916,482.57l-1.082-.424.63.976L133.8,644.236l.411.63.253-.706,37.176-105.348.119-.339Z" transform="translate(-27.834 -482.146)" fill="#b2b2b2"/>
    </g>
    <g id="triangle36-29" data-name="triangle36" transform="translate(493.319 -1348.493)">
      <path id="Path_1216" data-name="Path 1216" d="M138.167,183.3,100.982,34.573l-.333-1.344-.372,1.335-24.79,86.76-.059.206.155.158,61.963,61.963.943.944ZM76.2,121.522,100.982,34.76l-.716-.009,37.181,148.724.626-.354L76.116,121.158Z" transform="translate(-75.428 -33.229)" fill="#b2b2b2"/>
    </g>
    <g id="triangle36-30" data-name="triangle36" transform="translate(430.953 -1403.802)">
      <path id="Path_1217" data-name="Path 1217" d="M115.688,47.53,28.946-8.241,27.925-8.9l.482,1.12,61.961,142.53.414.944.285-.993,24.778-86.762.079-.267ZM91.047,134.457,29.095-8.073l-.542.462,86.742,55.77-.155-.414-24.79,86.76Z" transform="translate(-27.925 8.899)" fill="#b2b2b2"/>
    </g>
    <g id="triangle36-31" data-name="triangle36" transform="translate(344.378 -1273.106)">
      <path id="Path_1218" data-name="Path 1218" d="M37.311,233.417-37.044,90.9l-.365.54L111.316,103.83l-.294-.559L36.665,233.406Zm74.062-130.334L-37.35,90.71l-.668-.06.318.6L36.655,233.76l.315.6.332-.591,74.367-130.126.285-.511Z" transform="translate(38.018 -90.65)" fill="#b2b2b2"/>
    </g>
    <g id="triangle36-32" data-name="triangle36" transform="translate(455.938 -932.432)">
      <path id="Path_1219" data-name="Path 1219" d="M152.544,350.632,127.765,486.975l.649-.168L47.861,387.667l-.16.58,105.33-37.2Zm-105.255,37.5,80.549,99.14.511.624.143-.79,24.779-136.344.11-.628-.6.217-105.326,37.2-.5.177Z" transform="translate(-46.956 -350.136)" fill="#b2b2b2"/>
    </g>
    <g id="triangle36-33" data-name="triangle36" transform="translate(431.294 -895.531)">
      <path id="Path_1220" data-name="Path 1220" d="M133.877,477.9,28.542,515.074l.491.418L53.811,379.173l-.649.168,80.549,99.139ZM53.082,379.041,28.3,515.36l-.119.626.61-.215,105.33-37.178.495-.172-.333-.408L53.734,378.873l-.5-.63Z" transform="translate(-28.185 -378.243)" fill="#b2b2b2"/>
    </g>
    <g id="triangle36-34" data-name="triangle36" transform="translate(319.865 -1074.623)">
      <path id="Path_1221" data-name="Path 1221" d="M55.578,557.98-55.992,241.935l-.638.343L79.707,422.011l-.07-.289L54.86,558.041ZM80.3,421.563-56.038,241.831l-.651.349L54.87,558.226l.471,1.317.247-1.371L80.366,421.853l.03-.161Z" transform="translate(56.689 -241.831)" fill="#b2b2b2"/>
    </g>
    <g id="triangle36-35" data-name="triangle36" transform="translate(381.729 -1589.296)">
      <path id="Path_1222" data-name="Path 1222" d="M126.889-149.773,40.147,36.124l.688.039L-8.741-112.561l-.259.48,136.32-37.183ZM-9.451-112.325,40.127,36.4l.3.888.393-.848,86.739-185.895.336-.729-.768.207L-9.194-112.8l-.374.11Z" transform="translate(9.568 150.187)" fill="#b2b2b2"/>
    </g>
    <g id="triangle36-36" data-name="triangle36" transform="translate(338.344 -1552.407)">
      <path id="Path_1223" data-name="Path 1223" d="M51.065,27.2-41.887-53.345l.07.481L1.558-121.039l-.67-.077L50.467,27.606ZM.929-121.43-42.445-53.257l-.169.268.247.2,92.941,80.55,1.023.894-.423-1.287L1.6-121.353l-.248-.737Z" transform="translate(42.614 122.089)" fill="#b2b2b2"/>
    </g>
    <g id="triangle36-37" data-name="triangle36" transform="translate(876.8 -1310.405)">
      <path id="Path_1224" data-name="Path 1224" d="M578.994,62.721,554.214,199.028l.5-.285L368.783,130.587l-.008.7,210.7-68.154ZM368.528,131.287l185.925,68.154.414.147.079-.432L579.718,62.849l.114-.609-.589.194-210.7,68.153-1.024.326Z" transform="translate(-367.52 -62.24)" fill="#b2b2b2"/>
    </g>
    <g id="triangle36-38" data-name="triangle36" transform="translate(877.346 -1403.381)">
      <path id="Path_1225" data-name="Path 1225" d="M579.419,84.622,424.487-8.341l-.386-.238-.154.436-55.77,161.117-.242.706.709-.235,210.7-68.154.771-.247Zm-210.539,68.6L424.65-7.909l-.54.2L579.035,85.26l.077-.668-210.7,68.153Z" transform="translate(-367.936 8.579)" fill="#b2b2b2"/>
    </g>
    <g id="triangle36-39" data-name="triangle36" transform="translate(877.445 -1242.282)">
      <path id="Path_1226" data-name="Path 1226" d="M554.3,182.508l-161.122,55.78.487.281-24.8-123.94-.491.423L554.3,183.207Zm-186.166-67.73,24.8,123.933.083.419.4-.139,161.118-55.784.982-.344-.971-.354L368.629,114.353l-.618-.225Z" transform="translate(-368.011 -114.128)" fill="#b2b2b2"/>
    </g>
    <g id="triangle36-40" data-name="triangle36" transform="translate(1062.889 -1260.879)">
      <path id="Path_1227" data-name="Path 1227" d="M690.03,242.72l-179.689-55.79.06.689L677.71,100.868l-.541-.294L689.55,243.1Zm-12.657-142.5L510.062,186.96l-.8.414.86.265,179.687,55.79.528.164-.049-.553L677.908,100.514l-.045-.551Z" transform="translate(-509.261 -99.963)" fill="#b2b2b2"/>
    </g>
    <g id="triangle36-41" data-name="triangle36" transform="translate(1063.36 -1310.345)">
      <path id="Path_1228" data-name="Path 1228" d="M534.533,62.706,509.754,199.014l-.134.739.67-.344L677.6,112.656l.767-.391-.817-.288L535.018,62.42l-.407-.135Zm142.727,49.3L509.95,198.748l.536.394L535.258,62.835l-.486.284,142.537,49.566Z" transform="translate(-509.62 -62.285)" fill="#b2b2b2"/>
    </g>
    <g id="triangle36-42" data-name="triangle36" transform="translate(1366.959 -1068.525)">
      <path id="Path_1229" data-name="Path 1229" d="M883.657,246.553,741.126,395.277l.634.3,12.4-86.735-.2.28,130.131-61.981Zm-130.228,62.19-12.4,86.737-.163,1.14.8-.83,142.53-148.719-.421-.595L753.634,308.46l-.177.081Z" transform="translate(-740.866 -246.476)" fill="#b2b2b2"/>
    </g>
    <g id="triangle36-43" data-name="triangle36" transform="translate(1243.231 -1118.057)">
      <path id="Path_1230" data-name="Path 1230" d="M771.2,407.14l-123.944-198.3-.551.48L783.048,320.886l-.133-.339-12.4,86.737Zm12.319-86.827L647.176,208.748l-.551.486,123.944,198.3.536.86.142-1.008,12.4-86.735.031-.207Z" transform="translate(-646.625 -208.748)" fill="#b2b2b2"/>
    </g>
    <g id="triangle36-44" data-name="triangle36" transform="translate(684.827 -932.585)">
      <path id="Path_1231" data-name="Path 1231" d="M402.4,493.253l-6.21-142.529-.03-.705-.566.419L222.1,480.589l-.8.6,1,.067L402,493.636l.418.029ZM222.54,481.184l173.5-130.152-.592-.281,6.211,142.533.4-.383L222.342,480.514Z" transform="translate(-221.297 -350.019)" fill="#b2b2b2"/>
    </g>
    <g id="triangle36-45" data-name="triangle36" transform="translate(685.023 -802.15)">
      <path id="Path_1232" data-name="Path 1232" d="M401.739,461.9l-99.158,86.76.529.045-80.554-99.141-.308.6,179.708,12.38Zm-179.753-11.87,80.55,99.142.24.3.29-.255,99.161-86.76.672-.584-.889-.059L222.3,449.429l-.849-.059Z" transform="translate(-221.446 -449.37)" fill="#b2b2b2"/>
    </g>
    <g id="triangle36-46" data-name="triangle36" transform="translate(685.401 -932.236)">
      <path id="Path_1233" data-name="Path 1233" d="M395.679,350.285H234.227l-.034.335-12.38,130.146-.079.835.67-.5L395.9,350.948l.89-.663ZM222.551,480.84l12.378-130.152-.368.335H395.679l-.222-.668L221.96,480.506Z" transform="translate(-221.734 -350.285)" fill="#b2b2b2"/>
    </g>
    <g id="triangle36-47" data-name="triangle36" transform="translate(561.025 -932.236)">
      <path id="Path_1234" data-name="Path 1234" d="M264.2,350.285H127l.593.625L251.556,481.06l.555.591.08-.81,12.378-130.152.041-.4ZM252.086,480.549,128.129,350.4l-.267.625H264.2l-.368-.4-12.38,130.146Z" transform="translate(-126.999 -350.285)" fill="#b2b2b2"/>
    </g>
    <g id="triangle36-48" data-name="triangle36" transform="translate(536.569 -802.135)">
      <path id="Path_1235" data-name="Path 1235" d="M146.434,548.8,109.258,455.85l-.331.511,148.738-6.193-.26-.649L145.846,548.66Zm111.2-99.376L108.9,455.619l-.525.02.2.487,37.177,92.951.2.488.394-.349L257.9,450.076l.776-.694Z" transform="translate(-108.371 -449.381)" fill="#b2b2b2"/>
    </g>
    <g id="triangle36-49" data-name="triangle36" transform="translate(536.662 -932.648)">
      <path id="Path_1236" data-name="Path 1236" d="M133.307,350.684,108.527,487.027l-.085.457.463-.02,148.738-6.193.817-.034-.567-.589L133.936,350.5l-.5-.525ZM257.613,480.529l-148.739,6.193.381.437,24.779-136.344-.635.193,123.963,130.15Z" transform="translate(-108.442 -349.971)" fill="#b2b2b2"/>
    </g>
    <g id="triangle36-50" data-name="triangle36" transform="translate(1379.314 -1230.449)">
      <path id="Path_1237" data-name="Path 1237" d="M880.827,285.065,750.69,347.049l.515.431,61.984-223.119-.7.038L880.64,285.547Zm-68.353-160.9L750.492,347.284l-.215.78.733-.349,130.131-61.981.319-.151-.138-.326-68.149-161.14-.414-.976Z" transform="translate(-750.277 -123.141)" fill="#b2b2b2"/>
    </g>
    <g id="triangle36-51" data-name="triangle36" transform="translate(511.637 -1161.851)">
      <path id="Path_1238" data-name="Path 1238" d="M276.344,405.356,263.961,176.084l-.034-.693-.557.412L89.846,305.935l-.465.353.515.27L275.8,405.7l.58.311ZM90.3,306.529,263.814,176.4l-.591-.278L275.6,405.393l.545-.348-185.9-99.139Z" transform="translate(-89.381 -175.391)" fill="#b2b2b2"/>
    </g>
    <g id="triangle36-52" data-name="triangle36" transform="translate(511.472 -1031.882)">
      <path id="Path_1239" data-name="Path 1239" d="M276.011,374.032H139.672l.331.2-49.559-99.14-.509.491,185.9,99.139ZM89.776,275.423l49.566,99.139.1.207H276.011l.177-.7-185.9-99.14-1.033-.546Z" transform="translate(-89.255 -274.386)" fill="#b2b2b2"/>
    </g>
    <g id="triangle36-53" data-name="triangle36" transform="translate(511.696 -1198.797)">
      <path id="Path_1240" data-name="Path 1240" d="M263.682,184.549l-130.152-37.2-.364-.1-.1.361L89.7,314.947l-.277,1.021.857-.634L263.8,185.2l.6-.446ZM90.421,315.132,133.787,147.8l-.457.263,130.146,37.2-.119-.654L89.832,314.739Z" transform="translate(-89.426 -147.25)" fill="#b2b2b2"/>
    </g>
    <g id="triangle36-54" data-name="triangle36" transform="translate(455.9 -1031.907)">
      <path id="Path_1241" data-name="Path 1241" d="M152.792,374.059l-105.326,37.2.462.492L103.7,275.4l-.679.025,49.566,99.14Zm-49.783-98.936L47.239,411.467l-.312.761.782-.274,105.33-37.2.4-.137-.19-.379L103.688,275.1l-.364-.733Z" transform="translate(-46.927 -274.367)" fill="#b2b2b2"/>
    </g>
    <g id="triangle36-55" data-name="triangle36" transform="translate(418.765 -1199.034)">
      <path id="Path_1242" data-name="Path 1242" d="M155.407,147.433,19.082,215.6l-.44.227.344.357,92.953,99.162.452.491.177-.65,43.366-167.332.2-.788ZM112.479,314.841,19.526,215.681l-.108.583L155.74,148.093l-.525-.425L111.85,315Z" transform="translate(-18.642 -147.069)" fill="#b2b2b2"/>
    </g>
    <g id="triangle36-56" data-name="triangle36" transform="translate(319.307 -1074.982)">
      <path id="Path_1243" data-name="Path 1243" d="M80.431,421.648-55.9,241.916l-.377.584L135.827,285.9l-.265-.507L79.792,421.732Zm55.553-136.48L-56.123,241.779l-.991-.221.617.8L79.84,422.1l.393.517.248-.6,55.77-136.344.165-.4Z" transform="translate(57.114 -241.558)" fill="#b2b2b2"/>
    </g>
    <g id="triangle36-57" data-name="triangle36" transform="translate(1508.974 -1155.49)">
      <path id="Path_1244" data-name="Path 1244" d="M1060.886,329.164l-210.7-61.982.054.692,185.92-86.764-.525-.277,24.778,148.744Zm-25.038-148.723L849.927,267.2l-.89.412.944.28,210.692,61.984.571.161-.1-.579L1036.37,180.717l-.08-.481Z" transform="translate(-849.037 -180.236)" fill="#b2b2b2"/>
    </g>
    <g id="triangle36-58" data-name="triangle36" transform="translate(341.844 -946.457)">
      <path id="Path_1245" data-name="Path 1245" d="M-39.349,448.146l330.171,11.234.161-.708L20.166,339.59l-.307-.137-.165.3L-39.664,447.595l-.284.53ZM19.869,340.267,290.685,459.35l.161-.712L-39.33,447.4l.315.55L20.341,340.106Z" transform="translate(39.948 -339.453)" fill="#b2b2b2"/>
    </g>
    <g id="triangle36-59" data-name="triangle36" transform="translate(261.696 -948.612)">
      <path id="Path_1246" data-name="Path 1246" d="M-100.562,338.412l80.027,110.1.345.471.276-.512L39.441,340.619l.3-.536-.617-.011-139.377-2.252-.738-.009Zm139.356,1.852L-20.564,448.108l.63-.038-80.031-110.1-.3.591,139.386,2.245Z" transform="translate(100.995 -337.812)" fill="#b2b2b2"/>
    </g>
    <g id="triangle36-60" data-name="triangle36" transform="translate(408.346 -1381.657)">
      <path id="Path_1247" data-name="Path 1247" d="M11.415,192.106,72.352,8.991l-.67.059L97.121,53.425l.009-.372L10.744,191.8ZM97.762,53.064,72.323,8.686l-.412-.718-.257.788L10.706,191.87l.668.315L97.762,53.445l.118-.194Z" transform="translate(-10.706 -7.968)" fill="#b2b2b2"/>
    </g>
    <g id="triangle36-61" data-name="triangle36" transform="translate(704.715 -762.086)">
      <path id="Path_1248" data-name="Path 1248" d="M236.445,480.515l66.78,56.734.142.122.186-.045,53-13.485,1.169-.3-1.134-.414L236.809,479.886Zm119.92,42.608L303.372,536.6l.33.079-66.78-56.732-.364.628,119.778,43.253Z" transform="translate(-236.445 -479.886)" fill="#b2b2b2"/>
    </g>
    <g id="triangle36-62" data-name="triangle36" transform="translate(1021.917 -920.741)">
      <path id="Path_1249" data-name="Path 1249" d="M748.459,359.67,768.6,577.617l.457-.393-289.9-71.9.088.681L749.005,359.959ZM478.981,506.044l289.9,71.9.506.129-.049-.521L749.2,359.6l-.049-.561-.5.269L478.893,505.36l-.84.453Z" transform="translate(-478.053 -359.041)" fill="#b2b2b2"/>
    </g>
    <g id="triangle36-63" data-name="triangle36" transform="translate(1021.922 -1066.893)">
      <path id="Path_1250" data-name="Path 1250" d="M479.245,540.838,749,394.789l.352-.192-.221-.332-95.389-146.05-.325-.5-.306.511L478.749,540.323l-.692,1.161Zm173.88-292.214,95.39,146.044.134-.526L478.892,540.191l.5.512L653.751,248.609Z" transform="translate(-478.057 -247.719)" fill="#b2b2b2"/>
    </g>
    <g id="triangle36-64" data-name="triangle36" transform="translate(824.271 -976.653)">
      <path id="Path_1251" data-name="Path 1251" d="M328.064,574.976l198.207-55.612.534-.148-.343-.437L368.535,317.128l-.528-.675-.13.84L327.6,574.559l-.092.57ZM367.95,317.583,525.877,519.235l.2-.584L327.867,574.258l.467.418,40.273-257.263Z" transform="translate(-327.509 -316.453)" fill="#b2b2b2"/>
    </g>
    <g id="triangle36-65" data-name="triangle36" transform="translate(864.369 -1066.796)">
      <path id="Path_1252" data-name="Path 1252" d="M516.936,540.68,691.3,248.586l.47-.793-.884.248L358.591,338.476l-.54.147.343.442L516.321,540.718l.333.427ZM358.782,339.194l332.3-90.443-.419-.545L516.3,540.3l.61-.039L358.979,338.61Z" transform="translate(-358.051 -247.793)" fill="#b2b2b2"/>
    </g>
    <g id="triangle36-66" data-name="triangle36" transform="translate(672.156 -976.049)">
      <path id="Path_1253" data-name="Path 1253" d="M211.784,466.227l32.327,65.161.27.54.36-.481L404.792,317.43l-.528-.517L211.886,465.769l-.24.186ZM404.2,316.989,244.145,531l.63.059L212.447,465.9l-.106.457L404.722,317.5Z" transform="translate(-211.646 -316.913)" fill="#b2b2b2"/>
    </g>
    <g id="triangle36-67" data-name="triangle36" transform="translate(704.356 -975.973)">
      <path id="Path_1254" data-name="Path 1254" d="M236.643,531.551,356.421,574.8l.421.154.07-.444,40.273-257.263-.662-.28L236.471,530.98l-.3.4ZM396.455,317.131,356.178,574.4l.492-.291L236.894,530.859l.173.57L397.118,317.412Z" transform="translate(-236.172 -316.971)" fill="#b2b2b2"/>
    </g>
    <g id="triangle36-68" data-name="triangle36" transform="translate(401.661 -946.351)">
      <path id="Path_1255" data-name="Path 1255" d="M5.614,340.242,276.43,459.325l.456.2.059-.491,13.78-110.655.05-.4-.407-.014L5.773,339.534Zm284.375,8.04L276.208,458.937l.52-.289L5.911,339.564l-.158.708L290.345,348.7Z" transform="translate(-5.614 -339.534)" fill="#b2b2b2"/>
    </g>
    <g id="triangle36-69" data-name="triangle36" transform="translate(672.147 -976.113)">
      <path id="Path_1256" data-name="Path 1256" d="M212.343,466.369l192.382-148.85-.3-.654-178.6,38.194-.255.055-.034.26L211.747,466.029l-.108.885Zm13.632-110.585,178.6-38.2-.306-.66L211.888,465.784l.595.34,13.78-110.655Z" transform="translate(-211.639 -316.865)" fill="#b2b2b2"/>
    </g>
    <g id="triangle36-70" data-name="triangle36" transform="translate(1292.278 -920.578)">
      <path id="Path_1257" data-name="Path 1257" d="M684.028,359.631l20.14,217.947.043.517.478-.212,358.259-161.776,1.149-.52-1.248-.188-378.4-56.168-.467-.068Zm378.612,55.8L704.383,577.205l.523.3L684.764,359.563l-.421.4,378.4,56.173Z" transform="translate(-683.983 -359.165)" fill="#b2b2b2"/>
    </g>
    <g id="triangle36-71" data-name="triangle36" transform="translate(1312.231 -702.596)">
      <path id="Path_1258" data-name="Path 1258" d="M699.446,525.753l24.38,51.675.114.247.265-.034L1039,540.572l-.025-.737L699.794,525.228l-.613-.03Zm339.475,14.082L724.118,576.9l.378.21L700.115,525.44l-.349.525,339.181,14.607Z" transform="translate(-699.181 -525.198)" fill="#b2b2b2"/>
    </g>
    <g id="triangle36-72" data-name="triangle36" transform="translate(1312.678 -864.578)">
      <path id="Path_1259" data-name="Path 1259" d="M699.827,564.539l358.259-161.776-.523-.378L1038.49,578.768l.384-.33L699.688,563.831Zm339.4,14.306,19.077-176.38.07-.646-.592.265L699.521,563.86l.138.708,339.181,14.607.347.016Z" transform="translate(-699.521 -401.819)" fill="#b2b2b2"/>
    </g>
    <g id="triangle36-73" data-name="triangle36" transform="translate(306.427 -1198.081)">
      <path id="Path_1260" data-name="Path 1260" d="M28.832,399.9l6.891-251.648.01-.462-.453.077L-66.471,165.851l-.453.08.18.432,94.86,233.669ZM-66.341,166.58,35.416,148.612l-.441-.374-6.89,251.648.716-.134L-66.067,166.077Z" transform="translate(66.924 -147.795)" fill="#b2b2b2"/>
    </g>
    <g id="triangle36-74" data-name="triangle36" transform="translate(306.035 -1380.989)">
      <path id="Path_1261" data-name="Path 1261" d="M35.8,191.947,96.735,8.831,96.1,8.477-66.6,209.58l-.621.764.975-.175L35.51,192.2l.217-.041Zm-101.82,18.094L96.676,8.948,96.036,8.6,35.088,191.71l.286-.248L-66.378,209.441Z" transform="translate(67.223 -8.477)" fill="#b2b2b2"/>
    </g>
    <g id="triangle36-75" data-name="triangle36" transform="translate(261.983 -1180.958)">
      <path id="Path_1262" data-name="Path 1262" d="M-100.335,393.938l139.386,2.245.549.008-.207-.52L-55.475,162l-.474-1.159-.234,1.228L-100.7,393.494l-.079.433Zm44.182-231.655,94.86,233.669.344-.507-139.377-2.252.353.444L-55.458,162.2Z" transform="translate(100.777 -160.837)" fill="#b2b2b2"/>
    </g>
    <g id="triangle36-76" data-name="triangle36" transform="translate(864.363 -1276.929)">
      <path id="Path_1263" data-name="Path 1263" d="M358.784,389.272l332.3-90.443.605-.16-.437-.453L487.74,88.131l-.388-.393-.221.511L358.346,388.764l-.3.708ZM487.206,88.65l203.51,210.082.171-.613L358.592,388.554l.437.505L487.813,88.532Z" transform="translate(-358.047 -87.738)" fill="#b2b2b2"/>
    </g>
    <g id="triangle36-77" data-name="triangle36" transform="translate(992.566 -1276.997)">
      <path id="Path_1264" data-name="Path 1264" d="M660.786,298.6l42.4-140.988.108-.362-.364-.1L457.02,88.048l-1.323-.362.956.981,203.51,210.082.441.453ZM456.82,88.765l245.906,69.09-.256-.463L660.078,298.385l.62-.152L457.187,88.147Z" transform="translate(-455.697 -87.686)" fill="#b2b2b2"/>
    </g>
    <g id="triangle36-78" data-name="triangle36" transform="translate(773.889 -1276.83)">
      <path id="Path_1265" data-name="Path 1265" d="M380.591,389.036,509.375,88.509l.3-.7-.736.2L289.525,147.553l-.391.108.139.383L379.9,389.022l.326.86Zm-90.87-240.765L509.129,88.725l-.437-.5L379.908,388.741l.688.021-90.624-240.98Z" transform="translate(-289.134 -87.813)" fill="#b2b2b2"/>
    </g>
    <g id="triangle36-79" data-name="triangle36" transform="translate(993.02 -1453.371)">
      <path id="Path_1266" data-name="Path 1266" d="M456.711,130.8l245.906,69.09.559.156-.092-.57L663.863-46l-.105-.659-.5.432L456.568,130.16l-.525.452ZM663.134-45.876l39.217,245.468.467-.412-245.906-69.1.138.639L663.739-45.652Z" transform="translate(-456.043 46.655)" fill="#b2b2b2"/>
    </g>
    <g id="triangle36-80" data-name="triangle36" transform="translate(1200.014 -1453.193)">
      <path id="Path_1267" data-name="Path 1267" d="M653.562,199.817,923.851,55.458l.767-.415-.83-.265L614.281-46.331l-.574-.189.1.6,39.217,245.468.085.511ZM614.056-45.626,923.563,55.487l-.066-.679L653.216,199.167l.539.265L614.533-46.038Z" transform="translate(-613.707 46.52)" fill="#b2b2b2"/>
    </g>
    <g id="triangle36-81" data-name="triangle36" transform="translate(1196.804 -1207.743)">
      <path id="Path_1268" data-name="Path 1268" d="M612.113,282.092,654.51,141.1l-.543.207,253.327,149.98.2-.688-295.721-8.988Zm295.552,8.565L654.343,140.672l-.407-.236-.139.452L611.405,281.88l-.143.461.487.016,295.721,8.988,1.44.045Z" transform="translate(-611.262 -140.436)" fill="#b2b2b2"/>
    </g>
    <g id="triangle36-82" data-name="triangle36" transform="translate(1196.602 -1066.588)">
      <path id="Path_1269" data-name="Path 1269" d="M611.5,248.551l95.39,146.044.208.32.315-.217,200.33-137.056.939-.643-1.14-.035-295.721-8.988-.709-.025Zm295.825,8.477L706.992,394.089l.515.1-95.389-146.05-.32.575,295.721,8.988Z" transform="translate(-611.108 -247.951)" fill="#b2b2b2"/>
    </g>
    <g id="triangle36-83" data-name="triangle36" transform="translate(1238.941 -1352.182)">
      <path id="Path_1270" data-name="Path 1270" d="M644.285,175.744,914.574,31.385l-.546-.356-16.96,294.345.554-.3L644.3,175.094ZM897.808,325.419,914.77,31.078l.035-.659-.586.316L643.939,175.094l-.582.3.567.336L897.251,325.713l.521.31Z" transform="translate(-643.357 -30.419)" fill="#b2b2b2"/>
    </g>
    <g id="triangle36-84" data-name="triangle36" transform="translate(1291.703 -1057.694)">
      <path id="Path_1271" data-name="Path 1271" d="M684.48,392.643l378.4,56.173,1.038.151-.708-.769L885.139,254.962l-.221-.236-.261.183L684.328,391.969l-.783.536ZM884.593,255.464,1062.659,448.7l.326-.62-378.4-56.168.158.668,200.33-137.055Z" transform="translate(-683.545 -254.726)" fill="#b2b2b2"/>
    </g>
    <g id="triangle36-85" data-name="triangle36" transform="translate(1492.594 -1352.102)">
      <path id="Path_1272" data-name="Path 1272" d="M853.8,31.375,1044.06,114.51l-.118-.6L836.723,325.119l.636.281L854.321,31.059ZM837.253,325.636l207.22-211.207.374-.382-.491-.218L854.1,30.7l-.485-.217-.031.53-16.96,294.345-.059.987Z" transform="translate(-836.56 -30.48)" fill="#b2b2b2"/>
    </g>
    <g id="triangle36-86" data-name="triangle36" transform="translate(1492.509 -1269.392)">
      <path id="Path_1273" data-name="Path 1273" d="M1015.444,498.928,1044.6,94.483l.072-1-.709.719L836.743,305.408l-.247.252.242.255L1014.8,499.148l.58.629Zm-178.171-193,207.22-211.207-.634-.286-29.152,404.442.644-.226L837.284,305.413Z" transform="translate(-836.496 -93.479)" fill="#b2b2b2"/>
    </g>
    <g id="triangle36-87" data-name="triangle36" transform="translate(638.05 -1217.324)">
      <path id="Path_1274" data-name="Path 1274" d="M321.646,133.863l90.629,240.978.541-.448-226.3-136.5.035.608L322.223,134.02ZM186.134,238.527l226.3,136.5.912.55-.378-1L322.344,133.6l-.176-.462-.4.3L186.1,237.918l-.432.33Z" transform="translate(-185.668 -133.138)" fill="#b2b2b2"/>
    </g>
    <g id="triangle36-88" data-name="triangle36" transform="translate(401.418 -1198.159)">
      <path id="Path_1275" data-name="Path 1275" d="M6.194,399.923l6.891-251.648-.5.333L242.59,233.988l-.083-.647L5.6,399.608ZM242.848,233.3,12.838,147.911l-.481-.175-.02.52L5.447,399.9l-.018.736.607-.427L242.93,233.945l.58-.4Z" transform="translate(-5.429 -147.736)" fill="#b2b2b2"/>
    </g>
    <g id="triangle36-89" data-name="triangle36" transform="translate(400.679 -1112.858)">
      <path id="Path_1276" data-name="Path 1276" d="M5.987,379.953l284.592,8.429.5.015-.133-.48-47.7-174.7-.137-.505-.428.3L5.78,379.28l-.914.643ZM242.537,213.41l47.7,174.7.368-.473L6.007,379.215l.2.67L243.106,213.617Z" transform="translate(-4.866 -212.708)" fill="#b2b2b2"/>
    </g>
    <g id="triangle36-90" data-name="triangle36" transform="translate(408.148 -1337.074)">
      <path id="Path_1277" data-name="Path 1277" d="M11.422,181.56,97.809,42.82h-.632L240.8,266.947l.442-.545L11.234,181.016Zm230,84.989L97.809,42.417l-.324-.491-.307.5L10.791,181.175l-.236.385.424.155,230.007,85.379,1.039.39Z" transform="translate(-10.555 -41.926)" fill="#b2b2b2"/>
    </g>
    <g id="triangle36-91" data-name="triangle36" transform="translate(494.123 -1337.191)">
      <path id="Path_1278" data-name="Path 1278" d="M76.858,42.987l279.29,119.649-.077-.629L220.4,266.484l.534.093L77.32,42.445ZM220.852,267.069,356.523,162.587l.5-.382-.58-.247L77.15,42.308l-1.109-.471.647,1.011L220.312,266.975l.221.341Z" transform="translate(-76.041 -41.837)" fill="#b2b2b2"/>
    </g>
    <g id="triangle36-92" data-name="triangle36" transform="translate(638.109 -1113.051)">
      <path id="Path_1279" data-name="Path 1279" d="M234.086,388.419l178.6-38.2.918-.2-.8-.482-226.3-136.5-.789-.484.24.9,47.7,174.7.091.333ZM186.12,213.677l226.3,136.5.112-.679-178.6,38.194.437.268-47.7-174.7Z" transform="translate(-185.713 -212.561)" fill="#b2b2b2"/>
    </g>
    <g id="Group_736" data-name="Group 736" transform="translate(390.917 -1412.046)">
      <path id="Path_1280" data-name="Path 1280" d="M86.729,35.831a13.406,13.406,0,1,1,13.406,13.407A13.407,13.407,0,0,1,86.729,35.831Z" transform="translate(30.51 26.945)" fill="#b2b2b2"/>
      <path id="Path_1281" data-name="Path 1281" d="M63.753,102.843A13.406,13.406,0,1,1,77.159,116.25,13.406,13.406,0,0,1,63.753,102.843Z" transform="translate(23.321 47.911)" fill="#b2b2b2"/>
      <path id="Path_1282" data-name="Path 1282" d="M10.144,203.68A13.406,13.406,0,1,1,23.55,217.086,13.406,13.406,0,0,1,10.144,203.68Z" transform="translate(6.548 79.461)" fill="#b2b2b2"/>
      <path id="Path_1283" data-name="Path 1283" d="M80.347,277.712a13.406,13.406,0,1,1,13.406,13.406A13.407,13.407,0,0,1,80.347,277.712Z" transform="translate(28.513 102.624)" fill="#b2b2b2"/>
      <path id="Path_1284" data-name="Path 1284" d="M118.639,354.3a13.406,13.406,0,1,1,13.407,13.4A13.407,13.407,0,0,1,118.639,354.3Z" transform="translate(40.494 126.586)" fill="#b2b2b2"/>
      <path id="Path_1285" data-name="Path 1285" d="M99.492,458.962A13.406,13.406,0,1,1,112.9,472.368,13.407,13.407,0,0,1,99.492,458.962Z" transform="translate(34.503 159.334)" fill="#b2b2b2"/>
      <path id="Path_1286" data-name="Path 1286" d="M350.946,462.792A13.406,13.406,0,1,1,364.352,476.2,13.408,13.408,0,0,1,350.946,462.792Z" transform="translate(113.178 160.532)" fill="#b2b2b2"/>
      <path id="Path_1287" data-name="Path 1287" d="M455.611,525.336a13.407,13.407,0,1,1,13.407,13.406A13.408,13.408,0,0,1,455.611,525.336Z" transform="translate(145.926 180.1)" fill="#b2b2b2"/>
      <path id="Path_1288" data-name="Path 1288" d="M525.814,374.718a13.406,13.406,0,1,1,13.406,13.407A13.408,13.408,0,0,1,525.814,374.718Z" transform="translate(167.891 132.975)" fill="#b2b2b2"/>
      <path id="Path_1289" data-name="Path 1289" d="M497.733,170.493A13.406,13.406,0,1,1,511.139,183.9,13.408,13.408,0,0,1,497.733,170.493Z" transform="translate(159.105 69.077)" fill="#b2b2b2"/>
      <path id="Path_1290" data-name="Path 1290" d="M343.287,354.3a13.406,13.406,0,1,1,13.407,13.4A13.407,13.407,0,0,1,343.287,354.3Z" transform="translate(110.782 126.586)" fill="#b2b2b2"/>
      <path id="Path_1291" data-name="Path 1291" d="M625.375,102.843a13.406,13.406,0,1,1,13.406,13.407A13.406,13.406,0,0,1,625.375,102.843Z" transform="translate(199.041 47.911)" fill="#b2b2b2"/>
      <circle id="Ellipse_91" data-name="Ellipse 91" cx="13.406" cy="13.406" r="13.406" transform="translate(976.912 387.04)" fill="#b2b2b2"/>
      <path id="Path_1292" data-name="Path 1292" d="M728.764,365.784A13.406,13.406,0,1,1,742.17,379.19,13.406,13.406,0,0,1,728.764,365.784Z" transform="translate(231.389 130.18)" fill="#b2b2b2"/>
      <path id="Path_1293" data-name="Path 1293" d="M864.063,483.214a13.406,13.406,0,1,1,13.406,13.406A13.407,13.407,0,0,1,864.063,483.214Z" transform="translate(273.722 166.922)" fill="#b2b2b2"/>
      <path id="Path_1294" data-name="Path 1294" d="M1000.64,300.687a13.406,13.406,0,1,1,13.406,13.407A13.407,13.407,0,0,1,1000.64,300.687Z" transform="translate(316.454 109.813)" fill="#b2b2b2"/>
      <path id="Path_1295" data-name="Path 1295" d="M841.088,249.631A13.406,13.406,0,1,1,854.5,263.037,13.407,13.407,0,0,1,841.088,249.631Z" transform="translate(266.533 93.838)" fill="#b2b2b2"/>
      <path id="Path_1296" data-name="Path 1296" d="M698.181,448.813a8.313,8.313,0,1,1,8.312,8.313A8.313,8.313,0,0,1,698.181,448.813Z" transform="translate(221.821 157.752)" fill="#b2b2b2"/>
      <path id="Path_1297" data-name="Path 1297" d="M640.742,211.45a8.312,8.312,0,1,1,8.313,8.313A8.314,8.314,0,0,1,640.742,211.45Z" transform="translate(203.849 83.486)" fill="#b2b2b2"/>
      <path id="Path_1298" data-name="Path 1298" d="M363.76,118.223a8.313,8.313,0,1,1,8.313,8.313A8.315,8.315,0,0,1,363.76,118.223Z" transform="translate(117.187 54.317)" fill="#b2b2b2"/>
      <path id="Path_1299" data-name="Path 1299" d="M381.63,213.953a8.313,8.313,0,1,1,8.313,8.314A8.315,8.315,0,0,1,381.63,213.953Z" transform="translate(122.778 84.269)" fill="#b2b2b2"/>
      <path id="Path_1300" data-name="Path 1300" d="M430.134,317.342a8.313,8.313,0,1,1,8.313,8.313A8.314,8.314,0,0,1,430.134,317.342Z" transform="translate(137.954 116.617)" fill="#b2b2b2"/>
      <path id="Path_1301" data-name="Path 1301" d="M178.68,215.23a8.314,8.314,0,1,1,8.315,8.314A8.315,8.315,0,0,1,178.68,215.23Z" transform="translate(59.279 84.668)" fill="#b2b2b2"/>
      <path id="Path_1302" data-name="Path 1302" d="M520.759,65.89a8.313,8.313,0,1,1,8.313,8.313A8.314,8.314,0,0,1,520.759,65.89Z" transform="translate(166.309 37.943)" fill="#b2b2b2"/>
      <path id="Path_1303" data-name="Path 1303" d="M116.136,146.3a8.313,8.313,0,1,1,8.313,8.313A8.315,8.315,0,0,1,116.136,146.3Z" transform="translate(39.711 63.103)" fill="#b2b2b2"/>
      <path id="Path_1304" data-name="Path 1304" d="M213.144,176.938a8.313,8.313,0,1,1,8.313,8.313A8.313,8.313,0,0,1,213.144,176.938Z" transform="translate(70.063 72.688)" fill="#b2b2b2"/>
      <path id="Path_1305" data-name="Path 1305" d="M222.078,351.806a8.313,8.313,0,1,1,8.313,8.313A8.315,8.315,0,0,1,222.078,351.806Z" transform="translate(72.858 127.401)" fill="#b2b2b2"/>
      <path id="Path_1306" data-name="Path 1306" d="M-2.57,341.594a8.313,8.313,0,1,1,8.313,8.313A8.314,8.314,0,0,1-2.57,341.594Z" transform="translate(2.57 124.205)" fill="#b2b2b2"/>
      <path id="Path_1307" data-name="Path 1307" d="M22.958,488.381a8.313,8.313,0,1,1,8.313,8.313A8.315,8.315,0,0,1,22.958,488.381Z" transform="translate(10.557 170.132)" fill="#b2b2b2"/>
      <path id="Path_1308" data-name="Path 1308" d="M215.7,450.088a8.313,8.313,0,1,1,8.313,8.315A8.314,8.314,0,0,1,215.7,450.088Z" transform="translate(70.861 158.151)" fill="#b2b2b2"/>
      <path id="Path_1309" data-name="Path 1309" d="M664.993,544.543a8.313,8.313,0,1,1,8.313,8.313A8.315,8.315,0,0,1,664.993,544.543Z" transform="translate(211.437 187.704)" fill="#b2b2b2"/>
      <path id="Path_1310" data-name="Path 1310" d="M842.414,33.98a8.314,8.314,0,1,1,8.313,8.313A8.315,8.315,0,0,1,842.414,33.98Z" transform="translate(266.948 27.959)" fill="#b2b2b2"/>
      <path id="Path_1311" data-name="Path 1311" d="M404.605-6.866a8.315,8.315,0,0,1,8.313-8.313,8.315,8.315,0,0,1,8.313,8.313,8.312,8.312,0,0,1-8.313,8.313A8.312,8.312,0,0,1,404.605-6.866Z" transform="translate(129.967 15.179)" fill="#b2b2b2"/>
    </g>
  </g>
</svg>
