<svg xmlns="http://www.w3.org/2000/svg" width="52" height="52" viewBox="0 0 52 52">
  <g id="ic_dashboard" transform="translate(11.233 -32.827)">
    <rect id="Rectangle_2" data-name="Rectangle 2" width="52" height="52" transform="translate(-11.233 32.827)" fill="none"/>
    <g id="Group_2" data-name="Group 2" transform="translate(-4.026 43.538)">
      <g id="Group_1" data-name="Group 1" transform="translate(0 0)">
        <path id="Path_1" data-name="Path 1" d="M31.714,65.848a.634.634,0,0,1,.635-.635h5.695a18.921,18.921,0,0,0-1.229-6.128l-2.826,1.35a.635.635,0,0,1-.547-1.145l2.88-1.375a19.107,19.107,0,0,0-3.49-5.151l-2.125,2.3a.635.635,0,1,1-.932-.862l2.154-2.329A19.108,19.108,0,0,0,27.061,48.6l-1.3,2.891a.634.634,0,1,1-1.157-.522L25.893,48.1a18.9,18.9,0,0,0-6.237-1.272v5.695a.635.635,0,1,1-1.269,0V46.827a18.933,18.933,0,0,0-5.873,1.13l1.116,2.976a.635.635,0,0,1-.371.817.654.654,0,0,1-.223.04.636.636,0,0,1-.595-.412l-1.1-2.943a19.1,19.1,0,0,0-5.313,3.519l2.227,2.227a.634.634,0,1,1-.9.9L5.128,52.852a19.1,19.1,0,0,0-3.358,4.957l2.891,1.3a.635.635,0,1,1-.522,1.157L1.272,58.977A18.914,18.914,0,0,0,0,65.214H5.7a.635.635,0,1,1,0,1.269H.01A18.857,18.857,0,0,0,1.189,72.5l2.888-1.252a.635.635,0,0,1,.5,1.164L1.666,73.68A19.1,19.1,0,0,0,4.1,77.665a.635.635,0,0,0,.5.24H33.445a.634.634,0,0,0,.5-.24A19.157,19.157,0,0,0,36.267,73.9l-2.887-1.321a.635.635,0,1,1,.528-1.154l2.856,1.307a18.873,18.873,0,0,0,1.27-6.251H32.348A.634.634,0,0,1,31.714,65.848Zm-5.8-6.019L24.1,62.845c-.632,1.053-1.175,2.193-1.7,3.3-.175.367-.35.734-.529,1.1a3.171,3.171,0,0,1-2.86,1.78,3.321,3.321,0,0,1-.731-.082,3.139,3.139,0,0,1-2.35-2.35A3.184,3.184,0,0,1,17.63,63c.366-.179.733-.354,1.1-.529,1.1-.525,2.243-1.068,3.3-1.7l3.015-1.809a.634.634,0,0,1,.871.871Z" transform="translate(0 -46.827)" fill="#fff"/>
        <path id="Path_2" data-name="Path 2" d="M232.363,244.414c-.364.173-.727.346-1.089.524a1.919,1.919,0,0,0-1.017,2.168,1.887,1.887,0,0,0,1.394,1.394,1.92,1.92,0,0,0,2.169-1.017c.177-.362.35-.725.523-1.088.538-1.13,1.095-2.3,1.758-3.4l.5-.839-.838.5C234.66,243.32,233.493,243.876,232.363,244.414Z" transform="translate(-213.087 -227.628)" fill="#fff"/>
      </g>
    </g>
  </g>
</svg>
