<svg xmlns="http://www.w3.org/2000/svg" width="52" height="52" viewBox="0 0 52 52">
  <g id="ic_user" transform="translate(0 -1.808)">
    <rect id="Rectangle_2" data-name="Rectangle 2" width="52" height="52" transform="translate(0 1.808)" fill="none"/>
    <g id="Group_2" data-name="Group 2" transform="translate(-7.711 -5.623)">
      <path id="Path_1" data-name="Path 1" d="M113.645,22.13c5.031,0,9.11-4.954,9.11-11.065S121.416,0,113.645,0s-9.11,4.954-9.11,11.065S108.614,22.13,113.645,22.13Z" transform="translate(-79.725 11.43)" fill="#fff"/>
      <path id="Path_2" data-name="Path 2" d="M41.9,300.563c0-.373,0-.1,0,0Z" transform="translate(-25.184 -250.108)" fill="#fff"/>
      <path id="Path_3" data-name="Path 3" d="M308.085,301.825c0-.1,0-.708,0,0Z" transform="translate(-256.959 -251.078)" fill="#fff"/>
      <path id="Path_4" data-name="Path 4" d="M76.3,193.339c-.169-10.646-1.559-13.679-12.2-15.6a6.378,6.378,0,0,1-4.988,1.908,6.379,6.379,0,0,1-4.989-1.908c-10.523,1.9-12,4.888-12.192,15.253-.016.846-.023.891-.026.793,0,.184,0,.525,0,1.118,0,0,2.533,5.106,17.205,5.106S76.32,194.9,76.32,194.9c0-.382,0-.647,0-.827A6.841,6.841,0,0,1,76.3,193.339Z" transform="translate(-25.195 -143.33)" fill="#fff"/>
    </g>
  </g>
</svg>
